…
``` r
sp7
```

    # A tibble: 56 x 5
         day companies start_value revenue end_value
       <int> <chr>           <dbl>   <dbl>     <dbl>
     1     0 google           92.6     1.2      93.8
     2     1 google           93.8    -2.5     105. 
     3     2 google          105.     -2.4      92.8
     4     3 google           92.8     0.5      95.9
     5     4 google           95.9    -0.6      89.4
     6     5 google           89.4     0.9      99.5
     7     6 google           99.5     0.7      99.1
     8     7 google           99.1     2.5      99.4
     9     0 microsoft        99.5     0.9     100. 
    10     1 microsoft       100.      2.3     104. 
    # i 46 more rows
…
